,FPR_1,FPR_2,Time_Query_1,Time_Query_2,Time_Query_3,n,p
0,0.004,0.006,0.0016,0.003,0.0044,10000,0.01
1,0.05,0.058,0.0016,0.0024,0.0033,10000,0.05
2,0.117,0.12,0.0016,0.0021,0.0026,10000,0.1
3,0.145,0.122,0.0015,0.0017,0.002,10000,0.15
4,0.194,0.186,0.0015,0.0017,0.002,10000,0.2
5,0.29,0.304,0.0016,0.0018,0.002,10000,0.25
6,0.305,0.284,0.0013,0.0013,0.0014,10000,0.3
7,0.012,0.014,0.0015,0.0027,0.0041,25000,0.01
8,0.055,0.05,0.0015,0.0022,0.0029,25000,0.05
9,0.081,0.068,0.0014,0.0019,0.0024,25000,0.1
10,0.167,0.166,0.0014,0.0017,0.002,25000,0.15
11,0.19,0.16,0.0015,0.0017,0.002,25000,0.2
12,0.268,0.262,0.0016,0.0017,0.002,25000,0.25
13,0.306,0.3,0.0013,0.0013,0.0014,25000,0.3
14,0.012,0.012,0.0015,0.0027,0.0041,50000,0.01
15,0.056,0.052,0.0015,0.0022,0.003,50000,0.05
16,0.094,0.098,0.0014,0.0018,0.0024,50000,0.1
17,0.171,0.192,0.0015,0.0017,0.002,50000,0.15
18,0.181,0.166,0.0015,0.0017,0.002,50000,0.2
19,0.263,0.286,0.0014,0.0016,0.0018,50000,0.25
20,0.302,0.316,0.0013,0.0013,0.0014,50000,0.3
21,0.008,0.008,0.0015,0.0028,0.0042,75000,0.01
22,0.05,0.054,0.0015,0.0022,0.0029,75000,0.05
23,0.099,0.088,0.0014,0.0019,0.0024,75000,0.1
24,0.149,0.146,0.0014,0.0016,0.002,75000,0.15
25,0.192,0.176,0.0015,0.0017,0.0019,75000,0.2
26,0.29,0.31,0.0016,0.0017,0.002,75000,0.25
27,0.302,0.322,0.0013,0.0013,0.0014,75000,0.3
28,0.009,0.014,0.0017,0.0031,0.0045,100000,0.01
29,0.055,0.054,0.0018,0.0024,0.0033,100000,0.05
30,0.107,0.12,0.0016,0.0021,0.0027,100000,0.1
31,0.14,0.15,0.0015,0.0018,0.0021,100000,0.15
32,0.206,0.198,0.0016,0.0017,0.002,100000,0.2
33,0.25,0.266,0.0016,0.0018,0.002,100000,0.25
34,0.303,0.31,0.0013,0.0013,0.0014,100000,0.3
35,0.017,0.018,0.0019,0.0032,0.0046,250000,0.01
36,0.062,0.082,0.0018,0.0025,0.0033,250000,0.05
37,0.103,0.094,0.0017,0.0021,0.0027,250000,0.1
38,0.158,0.176,0.0016,0.0018,0.0021,250000,0.15
39,0.196,0.194,0.0016,0.0018,0.0021,250000,0.2
40,0.27,0.27,0.0017,0.0018,0.0021,250000,0.25
41,0.326,0.336,0.0014,0.0014,0.0014,250000,0.3
42,0.011,0.008,0.0018,0.0032,0.0047,500000,0.01
43,0.05,0.054,0.0018,0.0026,0.0033,500000,0.05
44,0.113,0.124,0.0018,0.0022,0.0027,500000,0.1
45,0.15,0.156,0.0016,0.0018,0.0021,500000,0.15
46,0.207,0.214,0.0017,0.0018,0.0021,500000,0.2
47,0.261,0.262,0.0018,0.0018,0.0021,500000,0.25
48,0.323,0.318,0.0014,0.0014,0.0015,500000,0.3
49,0.007,0.008,0.0018,0.0033,0.0048,750000,0.01
50,0.054,0.048,0.0018,0.0025,0.0034,750000,0.05
51,0.092,0.084,0.0018,0.0022,0.0028,750000,0.1
52,0.134,0.124,0.0016,0.0018,0.0021,750000,0.15
53,0.205,0.228,0.0017,0.0019,0.0021,750000,0.2
54,0.248,0.234,0.0017,0.0019,0.0021,750000,0.25
55,0.269,0.268,0.0014,0.0014,0.0015,750000,0.3
56,0.012,0.012,0.0018,0.0033,0.0048,1000000,0.01
57,0.052,0.05,0.0019,0.0026,0.0035,1000000,0.05
58,0.099,0.104,0.0018,0.0022,0.0028,1000000,0.1
59,0.146,0.14,0.0016,0.0018,0.0021,1000000,0.15
60,0.214,0.204,0.0017,0.0019,0.0021,1000000,0.2
61,0.289,0.304,0.0018,0.0019,0.0021,1000000,0.25
62,0.308,0.304,0.0014,0.0014,0.0015,1000000,0.3
63,0.011,0.016,0.0018,0.0034,0.0049,5000000,0.01
64,0.04,0.04,0.0018,0.0027,0.0035,5000000,0.05
65,0.098,0.104,0.0018,0.0023,0.0029,5000000,0.1
66,0.153,0.156,0.0016,0.0019,0.0021,5000000,0.15
67,0.193,0.218,0.0017,0.002,0.0022,5000000,0.2
68,0.269,0.284,0.0018,0.0019,0.0022,5000000,0.25
69,0.312,0.276,0.0014,0.0014,0.0015,5000000,0.3
